module github.com/sorintlab/stolon

require (
	github.com/PuerkitoBio/purell v1.1.0 // indirect
	github.com/PuerkitoBio/urlesc v0.0.0-20170810143723-de5bf2ad4578 // indirect
	github.com/armon/go-metrics v0.0.0-20180917152333-f0300d1749da // indirect
	github.com/beorn7/perks v0.0.0-20180321164747-3a771d992973 // indirect
	github.com/boltdb/bolt v1.3.1 // indirect
	github.com/cockroachdb/cmux v0.0.0-20170110192607-30d10be49292 // indirect
	github.com/coreos/bbolt v1.3.0 // indirect
	github.com/coreos/etcd v3.2.11+incompatible
	github.com/coreos/go-semver v0.0.0-20150725033620-d043ae190b32 // indirect
	github.com/coreos/go-systemd v0.0.0-20181004131557-b14d3eb023cc // indirect
	github.com/coreos/pkg v0.0.0-20180928190104-399ea9e2e55f // indirect
	github.com/cpuguy83/go-md2man v1.0.8 // indirect
	github.com/davecgh/go-spew v0.0.0-20160907170601-6d212800a42e
	github.com/dgrijalva/jwt-go v3.2.0+incompatible // indirect
	github.com/docker/leadership v0.1.0
	github.com/docker/libkv v0.2.1
	github.com/emicklei/go-restful v2.8.0+incompatible // indirect
	github.com/emicklei/go-restful-swagger12 v0.0.0-20170208215640-dcef7f557305 // indirect
	github.com/ghodss/yaml v0.0.0-20150909031657-73d445a93680 // indirect
	github.com/go-openapi/jsonpointer v0.0.0-20170102174223-779f45308c19 // indirect
	github.com/go-openapi/jsonreference v0.0.0-20161105162150-36d33bfe519e // indirect
	github.com/go-openapi/spec v0.0.0-20180131233152-f3499b5df538 // indirect
	github.com/go-openapi/swag v0.0.0-20180102232305-84f4bee7c0a6 // indirect
	github.com/gogo/protobuf v1.0.0 // indirect
	github.com/golang/glog v0.0.0-20160126235308-23def4e6c14b // indirect
	github.com/golang/groupcache v0.0.0-20180203143532-66deaeb636df // indirect
	github.com/google/btree v0.0.0-20180124185431-e89373fe6b4a // indirect
	github.com/google/gofuzz v0.0.0-20170612174753-24818f796faf // indirect
	github.com/googleapis/gnostic v0.1.0 // indirect
	github.com/gregjones/httpcache v0.0.0-20171119193500-2bcd89a1743f // indirect
	github.com/grpc-ecosystem/go-grpc-prometheus v1.2.0 // indirect
	github.com/grpc-ecosystem/grpc-gateway v1.5.1 // indirect
	github.com/hashicorp/consul v1.0.2 // indirect
	github.com/hashicorp/go-cleanhttp v0.0.0-20160217214820-875fb671b3dd // indirect
	github.com/hashicorp/go-immutable-radix v1.0.0 // indirect
	github.com/hashicorp/go-msgpack v0.0.0-20150518234257-fa3f63826f7c // indirect
	github.com/hashicorp/go-multierror v1.0.0 // indirect
	github.com/hashicorp/go-rootcerts v0.0.0-20160503143440-6bb64b370b90 // indirect
	github.com/hashicorp/go-sockaddr v0.0.0-20180320115054-6d291a969b86 // indirect
	github.com/hashicorp/memberlist v0.1.0 // indirect
	github.com/hashicorp/serf v0.0.0-20160124182025-e4ec8cc423bb // indirect
	github.com/hashicorp/yamux v0.0.0-20180917205041-7221087c3d28 // indirect
	github.com/howeyc/gopass v0.0.0-20170109162249-bf9dde6d0d2c // indirect
	github.com/imdario/mergo v0.0.0-20141206190957-6633656539c1 // indirect
	github.com/inconshreveable/mousetrap v1.0.0 // indirect
	github.com/jonboulle/clockwork v0.1.0 // indirect
	github.com/json-iterator/go v0.0.0-20180128090011-28452fcdec4e // indirect
	github.com/juju/ratelimit v1.0.1 // indirect
	github.com/kballard/go-shellquote v0.0.0-20140719004912-e5c918b80c17 // indirect
	github.com/kr/pretty v0.1.0 // indirect
	github.com/lib/pq v0.0.0-20160831222520-50761b0867bd
	github.com/mailru/easyjson v0.0.0-20171120080333-32fa128f234d // indirect
	github.com/mattn/go-isatty v0.0.3
	github.com/matttproud/golang_protobuf_extensions v1.0.0 // indirect
	github.com/miekg/dns v1.0.12 // indirect
	github.com/mitchellh/copystructure v0.0.0-20161013195342-5af94aef99f5
	github.com/mitchellh/go-homedir v0.0.0-20161203194507-b8bc1bf76747 // indirect
	github.com/mitchellh/go-testing-interface v1.0.0 // indirect
	github.com/mitchellh/reflectwalk v0.0.0-20170726202117-63d60e9d0dbc // indirect
	github.com/pascaldekloe/goe v0.0.0-20180627143212-57f6aae5913c // indirect
	github.com/peterbourgon/diskv v2.0.1+incompatible // indirect
	github.com/pkg/errors v0.8.0 // indirect
	github.com/pmezard/go-difflib v1.0.0 // indirect
	github.com/prometheus/client_golang v0.8.0
	github.com/prometheus/client_model v0.0.0-20171117100541-99fa1f4be8e5 // indirect
	github.com/prometheus/common v0.0.0-20180326160409-38c53a9f4bfc // indirect
	github.com/prometheus/procfs v0.0.0-20180408092902-8b1c2da0d56d // indirect
	github.com/russross/blackfriday v1.5.1 // indirect
	github.com/satori/go.uuid v1.1.0
	github.com/sean-/seed v0.0.0-20170313163322-e2103e2c3529 // indirect
	github.com/sgotti/gexpect v0.0.0-20161123102107-0afc6c19f50a
	github.com/sorintlab/pollon v0.0.0-20171012155008-1475a2b45268
	github.com/sorintlab/tcpkeepalive v0.2.0 // indirect
	github.com/spf13/cobra v0.0.0-20171204131325-de2d9c4eca8f
	github.com/spf13/pflag v1.0.0
	github.com/stretchr/objx v0.1.1 // indirect
	github.com/stretchr/testify v1.2.2 // indirect
	github.com/ugorji/go v0.0.0-20151028022000-f1f1a805ed36 // indirect
	github.com/xiang90/probing v0.0.0-20160813154853-07dd2e8dfe18 // indirect
	go.uber.org/atomic v1.3.1 // indirect
	go.uber.org/zap v1.4.1
	golang.org/x/crypto v0.0.0-20180127211104-1875d0a70c90 // indirect
	golang.org/x/sync v0.0.0-20180314180146-1d60e4601c6f // indirect
	golang.org/x/sys v0.0.0-20180122081959-af50095a40f9 // indirect
	golang.org/x/time v0.0.0-20180412165947-fbb02b2291d2 // indirect
	google.golang.org/appengine v1.2.0 // indirect
	google.golang.org/genproto v0.0.0-20170731182057-09f6ed296fc6 // indirect
	google.golang.org/grpc v1.7.5 // indirect
	gopkg.in/check.v1 v1.0.0-20180628173108-788fd7840127 // indirect
	gopkg.in/inf.v0 v0.9.0 // indirect
	gopkg.in/vmihailenco/msgpack.v2 v2.9.1 // indirect
	gopkg.in/yaml.v1 v1.0.0-20140924161607-9f9df34309c0 // indirect
	gopkg.in/yaml.v2 v2.0.0-20160301204022-a83829b6f129 // indirect
	k8s.io/api v0.0.0-20171026120857-4df58c811fe2
	k8s.io/apimachinery v0.0.0-20170925234155-019ae5ada31d
	k8s.io/client-go v0.0.0-20171026121518-35ccd4336052
	k8s.io/kube-openapi v0.0.0-20180201014056-275e2ce91dec // indirect
)
